{
  "project_info": {
    "project_number": "708025760135",
    "firebase_url": "https://my-uganda-service-app.firebaseio.com",
    "project_id": "my-uganda-service-app",
    "storage_bucket": "my-uganda-service-app.appspot.com"
  },
  "client": [
    {
      "client_info": {
        "mobilesdk_app_id": "1:708025760135:android:91f5c40f6c62ec71",
        "android_client_info": {
          "package_name": "com.dashinvestments.serviceapp"
        }
      },
      "oauth_client": [
        {
          "client_id": "708025760135-364vu5og8smva4kkvpna51h3cta3mjpi.apps.googleusercontent.com",
          "client_type": 3
        }
      ],
      "api_key": [
        {
          "current_key": "AIzaSyAPR2XFLMF4fuRG7O7px_Pv4aB_YA5ObBA"
        }
      ],
      "services": {
        "analytics_service": {
          "status": 1
        },
        "appinvite_service": {
          "status": 1,
          "other_platform_oauth_client": []
        },
        "ads_service": {
          "status": 2
        }
      }
    }
  ],
  "configuration_version": "1"
}